{
  "posts": [
    {
        "id": 1001,
        "title": "My first blog",
        "post": "This is the content of my first blog"
    }
  ],
  "users": [
    {
      "id": "1001",
      "age": 35,
      "first_name": "Burch",
      "last_name": "George",
      "gender": "male",
      "email": "burchgeorge@geofarm.com",
      "followings": [],
      "posts": [1001]
    },
    {
      "id": "1002",
      "age": 31,
      "first_name": "Rachelle",
      "last_name": "Chang",
      "gender": "female",
      "email": "rachellechang@geofarm.com",
      "followings": [],
      "posts": []
    },
    {
      "id": "1003",
      "age": 38,
      "first_name": "Sheri",
      "last_name": "Bennett",
      "gender": "female",
      "email": "sheribennett@geofarm.com",
      "followings": [],
      "posts": []
    }
  ]
}


